<?xml version="1.0" encoding="UTF-8"?>
<svg width="20px" height="22px" viewBox="0 0 20 22" version="1.1" xmlns="http://www.w3.org/2000/svg" xmlns:xlink="http://www.w3.org/1999/xlink">
    <title>Group 4@2x</title>
    <g id="Wireframes" stroke="none" stroke-width="1" fill="none" fill-rule="evenodd" stroke-linecap="round" stroke-linejoin="round">
        <g id="Group-4" transform="translate(1.000000, 1.000000)" stroke="#666666">
            <g id="Users---Geometric-Full-Body-Single-User-Actions-Man---single-man-actions-star" transform="translate(0.000000, 0.463864)">
                <g id="Group-45" transform="translate(0.562500, 0.586220)">
                    <path d="M3.9375,4.68976271 C5.18014069,4.68976271 6.1875,3.63992357 6.1875,2.34488136 C6.1875,1.04983914 5.18014069,1.26387789e-12 3.9375,1.26387789e-12 C2.69485931,1.26387789e-12 1.6875,1.04983914 1.6875,2.34488136 C1.6875,3.63992357 2.69485931,4.68976271 3.9375,4.68976271 Z" id="Oval_230"></path>
                    <path d="M7.494,8.20239498 C6.70284387,6.47074752 4.86643871,5.54099666 3.07126744,5.96321623 C1.27609617,6.38543581 0.000845784706,8.0470399 -5.96855898e-13,9.96496414 L-5.96855898e-13,11.7236252 L1.6875,11.7236252 L2.25,17.5858285 L5.625,17.5858285 L6.01575,13.5088615" id="Shape_666"></path>
                    <path d="M12.897,8.54083953 L14.0535,11.1358416 L16.3035,11.1358416 C16.5359859,11.1263353 16.7491675,11.2699741 16.8362724,11.4948164 C16.9233773,11.7196586 16.8656487,11.9772874 16.692,12.1386692 L14.742,14.1411978 L15.82425,16.7315101 C15.9211064,16.974683 15.8585133,17.2551415 15.6686264,17.4288075 C15.4787394,17.6024735 15.2037795,17.6307328 14.985,17.4990679 L12.36975,15.9662972 L9.75525,17.4990679 C9.53643543,17.6313432 9.26103638,17.6033834 9.07083226,17.4295826 C8.88062814,17.2557818 8.81802426,16.9748883 8.91525,16.7315101 L9.9975,14.1411978 L8.0475,12.1386692 C7.87417184,11.9785709 7.81553298,11.7225327 7.90079675,11.4981105 C7.98606052,11.2736883 8.19698916,11.1288855 8.4285,11.1358416 L10.6785,11.1358416 L11.8365,8.53849464 C11.9404939,8.33381845 12.1445216,8.20580871 12.36675,8.20580871 C12.5889784,8.20580871 12.7930061,8.33381845 12.897,8.53849464 L12.897,8.54083953 Z" id="Shape_667"></path>
                    <line x1="3.9375" y1="5.86220339" x2="3.9375" y2="10.5519661" id="Shape_668"></line>
                </g>
            </g>
        </g>
    </g>
</svg>